<?xml version="1.0" standalone="no"?>
<!DOCTYPE svg PUBLIC "-//W3C//DTD SVG 1.1//EN" "../../../../www.w3.org/Graphics/SVG/1.1/DTD/svg11.dtd" >
<svg xmlns="http://www.w3.org/2000/svg">
<metadata>
This is a custom SVG webfont generated by Font Squirrel.
Copyright   : Copyright  2009 ParaType Ltd All rights reserved
Designer    : AKorolkova OUmpeleva VYefimov
Foundry     : ParaType Ltd
Foundry URL : httpwwwparatypecom
</metadata>
<defs>
<font id="webfontV5YcF68V" horiz-adv-x="1064" >
<font-face units-per-em="2048" ascent="1536" descent="-512" />
<missing-glyph horiz-adv-x="546" />
<glyph unicode=" "  horiz-adv-x="546" />
<glyph unicode="&#x09;" horiz-adv-x="546" />
<glyph unicode="&#xa0;" horiz-adv-x="546" />
<glyph unicode="!" horiz-adv-x="559" d="M178 94q0 55 33 87t86 32t86 -31.5t33 -87.5q0 -53 -33 -86t-86 -33t-86 33t-33 86zM295 362l41 361l149 711h164l-149 -711l-111 -361h-94z" />
<glyph unicode="&#x22;" horiz-adv-x="620" d="M389 1038l84 396h151l-143 -396h-92zM162 1038l84 396h151l-143 -396h-92z" />
<glyph unicode="#" d="M131 461l29 131h164l63 268h-154l29 131h156l78 324h139l-78 -324h217l78 324h139l-78 -324h158l-33 -131h-155l-64 -268h150l-33 -131h-150l-79 -342h-140l80 342h-217l-80 -342h-139l80 342h-160zM463 592h217l63 268h-217z" />
<glyph unicode="$" d="M125 104l72 125q33 -23 95 -57.5t144 -48.5l123 575q-45 33 -89 70t-78 80t-55.5 97t-21.5 124q0 90 30 150B2FFD5A07" />
<glyph unicode="%" horiz-adv-x="1507" d="M123 1004q0 119 36 204.5t91 141t122.5 82t133.5 26.5q117 0 177 -63.5t60 -180.5q0 -111 -30.5 -194.5t-82.5 -141t-123 -87t-149 -29.5q-104 0 -169.5 63.5t-65.5 178.5zM264 1020q0 -66 30 -102.5t89 -36.5q43 0 83 22.5t70.5 64.5t48 102t17.5 136q0 72 -31.5 102.5 t-89.5 30.5q-43 0 -83 -25.5t-69.5 -68.5t-47 -101t-17.5 -124zM791 244q0 119 36 204.5t91 141t122.5 82t133.5 26.5q117 0 177 -63.5t60 -180.5q0 -111 -30.5 -194.5t-82.5 -141t-123 -87t-149 -29.5q-104 0 -169.5 63.5t-65.5 178.5zM932 260q0 -66 30 -102.5t89 -36.5 q43 0 83 22.5t70.5 64.5t48 102t17.5 136q0 72 -31.5 102.5t-89.5 30.5q-43 0 -83 -25.5t-69.5 -68.5t-47 -101t-17.5 -124zM1231 1460l102 -80l-1051 -1405l-102 80z" />
<glyph unicode="&#x26;" horiz-adv-x="1581" d="M178 303q0 96 40 184t103.5 164t143.5 136.5t160 101.5l-24.5 66.5t-18 59t-10.5 61.5t-3 73q0 55 20.5 110B7ED5AAD9" />
<glyph unicode="'" horiz-adv-x="413" d="M209 1038l84 396h151l-143 -396h-92z" />
<glyph unicode="(" horiz-adv-x="544" d="M111 150q0 211 47 401t127 356t184 304.5t219 242.5l76 -72q-115 -127 -206 -269t-156.5 -295.5t-98.5 -3108C9CD1A23" />
<glyph unicode=")" horiz-adv-x="544" d="M-195 -375q100 104 187.5 243.5t155 294t106.5 319.5t39 323q0 197 -25.5 334t-89.5 247l103 68q47 -66 790A755F3AD5" />
<glyph unicode="*" horiz-adv-x="681" d="M145 1133v114h103l129 -24l-92 90l-56 94l101 57l51 -86l37 -114l43 116l49 82l98 -53l-51 -88l-96 -98l139 24h98v-114h-92l-133 24l94 -98l49 -80l-98 -57l-51 86l-49 125l-37 -119l-51 -86l-103 57l54 86l88 86l-121 -24h-103z" />
<glyph unicode="+" horiz-adv-x="983" d="M113 618v148h360v371h148v-371h360v-148h-360v-370h-148v370h-360z" />
<glyph unicode="," horiz-adv-x="380" d="M-43 -225q78 29 125 90t57 121q-8 -4 -20 -4q-29 0 -56.5 24.5t-27.5 65.5q0 53 34.5 90t100.5 37q51 0 78.5 -35t27.5 -80q0 -63 -21.5 -123.5t-60 -112t-91 -91.5t-113.5 -62z" />
<glyph unicode="-" horiz-adv-x="700" d="M129 520l33 139h471l-35 -139h-469z" />
<glyph unicode="." horiz-adv-x="432" d="M72 94q0 55 32.5 87t85.5 32t86 -31.5t33 -87.5q0 -53 -32.5 -86t-86.5 -33q-53 0 -85.5 33t-32.5 86z" />
<glyph unicode="../../../default.htm" horiz-adv-x="688" d="M-190 -229l1067 1687l116 -63l-1067 -1690z" />
<glyph unicode="0" d="M117 449q0 215 46 400t127 320.5t193.5 212t247.5 76.5q174 0 268.5 -112.5t94.5 -358.5q0 -184 -40 -364.032A1F1A86" />
<glyph unicode="1" d="M129 0l31 152h272l213 991l45 121l-100 -97l-246 -161l-57 104l506 348h69l-278 -1306h266l-31 -152h-690z" />
<glyph unicode="2" d="M66 0l12 59l132 128l172 170l183 196q92 102 167 205.5t119 200t44 178.5q0 39 -8 71.5t-26.5 56t-53.5 37t-90 13.5q-74 0 -143.5 -30t-147.5 -81l-43 123q98 72 188.5 101.5t196.5 29.5q143 0 215 -81t72 -208q0 -106 -59.5 -231t-150.5 -251t-199.5 -245.5 t-209.5 -216.5l-112 -88v-8l127 23h419l-28 -152h-776z" />
<glyph unicode="3" d="M88 27l74 145q41 -23 98 -38t133 -15q96 0 169 30.5t119 81t70.5 115t24.5 131.5q0 106 -53 163.5t-199 570BB4DD0AB7" />
<glyph unicode="4" d="M70 440l14 68l850 948h104l-186 -876h229l-28 -140h-232l-92 -440h-149l92 440h-602zM283 565l137 15h282l97 450l55 168h-8l-96 -139l-355 -391z" />
<glyph unicode="5" d="M96 23l70 141q43 -18 91 -31.5t124 -13.5q92 0 164.5 29.5t124 82t78 122t24.5 153.5q2 117 -62.5 174t-2107DEFC8A40" />
<glyph unicode="6" d="M129 418q0 205 78 387t203 320.5t282.5 226.5t317.5 106l8 -131q-113 -18 -223.5 -74.5t-203.5 -139.5t-160017887AF9" />
<glyph unicode="7" d="M141 0l742 1200l106 100l-119 -18h-542l30 152h813l-10 -56l-852 -1378h-168z" />
<glyph unicode="8" d="M125 299q0 141 93 261t263 192q-33 27 -62.5 54.5t-53 63t-38 82.5t-14.5 115q0 94 36 167t96.5 123t140.50D4EDA3A32" />
<glyph unicode="9" d="M190 106q129 29 239 84.5t198 132t151.5 172t100.5 203.5q-66 -57 -144 -86.5t-196 -29.5q-55 0 -111.5 200C74B40A2C" />
<glyph unicode=":" horiz-adv-x="546" d="M182 94q0 55 33 87t86 32t86 -31.5t33 -87.5q0 -53 -33 -86t-86 -33t-86 33t-33 86zM354 920q0 55 33 86.5t86 31.5t86 -31.5t33 -86.5q0 -53 -33 -86t-86 -33t-86 33t-33 86z" />
<glyph unicode=";" horiz-adv-x="559" d="M111 -225q78 29 125 90t57 121q-8 -4 -21 -4q-29 0 -56.5 24.5t-27.5 65.5q0 53 35 90t101 37q51 0 78.5 -0AF829FA9D" />
<glyph unicode="&#x3c;" horiz-adv-x="983" d="M111 625v59l776 473l78 -127l-486 -297l-186 -78l184 -65l498 -295l-78 -123z" />
<glyph unicode="=" horiz-adv-x="983" d="M113 449v147h868v-147h-868zM113 788v148h868v-148h-868z" />
<glyph unicode="&#x3e;" horiz-adv-x="983" d="M115 1032l78 125l786 -452v-60l-776 -473l-78 125l485 297l187 78l-185 65z" />
<glyph unicode="?" horiz-adv-x="847" d="M164 94q0 55 32.5 87t86.5 32q53 0 85.5 -31.5t32.5 -87.5q0 -53 -32.5 -86t-85.5 -33t-86 33t-33 86zM24404B157BA72" />
<glyph unicode="@" horiz-adv-x="2179" d="M238 483q0 223 76.5 403.5t207.5 307.5t305 195.5t369 68.5q184 0 342 -54t274.5 -155.5t182 -248t65.5 -30C25B8EAC8" />
<glyph unicode="A" horiz-adv-x="1140" d="M-68 0l828 1456h76l206 -1456h-157l-58 397h-499l-222 -397h-174zM408 545h403l-59 436l-4 217h-3l-92 -221z" />
<glyph unicode="B" horiz-adv-x="1138" d="M82 10l299 1411q78 12 175 20.5t210 8.5q76 0 145.5 -19.5t121.5 -58.5t84 -100.5t32 -143.5q0 -80 -24.5 0E7083FA86" />
<glyph unicode="C" horiz-adv-x="1114" d="M145 561q0 231 68 400t178.5 280t248.5 164t280 53q117 0 190.5 -16.5t120.5 -38.5l-74 -150q-41 23 -107.004405EA31" />
<glyph unicode="D" horiz-adv-x="1273" d="M82 -2l305 1436q78 10 176.5 13t177.5 3q121 0 219.5 -32t167 -97.5t105.5 -165.5t37 -235q0 -90 -16.5 -10314E78A44" />
<glyph unicode="E" horiz-adv-x="1044" d="M82 0l305 1434h739l-30 -152h-580l-100 -469h530l-31 -151h-530l-109 -510h590l-32 -152h-590h-162z" />
<glyph unicode="F" horiz-adv-x="1007" d="M82 0l305 1434h739l-30 -152h-580l-104 -489h540l-30 -152h-541l-135 -641h-164z" />
<glyph unicode="G" horiz-adv-x="1193" d="M145 557q0 252 74 424t189.5 277.5t255 152.5t270.5 47q117 0 193.5 -15.5t123.5 -37.5l-71 -150q-41 23 -0ABD490A6B" />
<glyph unicode="H" horiz-adv-x="1308" d="M82 0l303 1434h164l-131 -625h649l131 625h164l-303 -1434h-164l139 657h-651l-137 -657h-164z" />
<glyph unicode="I" horiz-adv-x="567" d="M127 0l303 1434h164l-303 -1434h-164z" />
<glyph unicode="J" horiz-adv-x="569" d="M-125 12l62 146q39 -27 110 -27q43 0 71.5 15.5t49 45t34 70.5t23.5 94l230 1078h163l-237 -1119q-18 -82 0AA0C38AF2" />
<glyph unicode="K" horiz-adv-x="1179" d="M82 0l303 1434h164l-143 -668l81 29l588 639h203l-586 -623l-94 -63l80 -82l358 -666h-186l-361 664h-104l-139 -664h-164z" />
<glyph unicode="L" horiz-adv-x="1007" d="M82 0l303 1434h164l-273 -1282h644l-31 -152h-647h-160z" />
<glyph unicode="M" horiz-adv-x="1544" d="M82 0l305 1434h113l266 -734l31 -159h2l94 164l559 729h145l-305 -1434h-164l205 963l64 215h-8l-115 -197l-492 -647h-49l-235 647l-31 197h-8l-17 -213l-204 -965h-156z" />
<glyph unicode="N" horiz-adv-x="1314" d="M82 0l309 1456h82l447 -958l67 -201h8l19 201l200 936h154l-309 -1457h-76l-448 961l-70 211h-6l-25 -211l-198 -938h-154z" />
<glyph unicode="O" horiz-adv-x="1333" d="M145 524q0 188 51.5 358.5t146.5 298.5t229.5 202.5t297.5 74.5q98 0 182.5 -29.5t144.5 -94t94 -167t34 -0784652A44" />
<glyph unicode="P" horiz-adv-x="1089" d="M82 0l301 1419q78 18 164 24.5t170 6.5q94 0 175 -20.5t140.5 -65.5t93 -115.5t33.5 -169.5q0 -156 -56 -2083A154AE2" />
<glyph unicode="Q" horiz-adv-x="1333" d="M145 524q0 188 51.5 358.5t146.5 298.5t229.5 202.5t297.5 74.5q98 0 182.5 -29.5t144.5 -94t94 -167t34 -0C851F7ACE" />
<glyph unicode="R" horiz-adv-x="1163" d="M82 0l301 1419q86 16 166 23.5t160 7.5q78 0 151.5 -19.5t130 -61.5t90 -109.5t33.5 -163.5q0 -180 -105.50885C9EA66" />
<glyph unicode="S" horiz-adv-x="1034" d="M35 51l84 150q47 -27 128 -52.5t191 -25.5q63 0 127 11t115 40t83 76t32 119q0 74 -38 125t-95.5 93t-124 0CE2F36A3F" />
<glyph unicode="T" horiz-adv-x="1081" d="M225 1282l31 152h1008l-31 -152h-424l-270 -1282h-164l270 1282h-420z" />
<glyph unicode="U" horiz-adv-x="1265" d="M178 338q0 84 23 190l190 906h164l-190 -908q-23 -90 -23 -164q0 -129 67.5 -179t200.5 -50q80 0 140.5 220C14D63AD7" />
<glyph unicode="V" horiz-adv-x="1107" d="M213 1434h168l137 -981v-220h4l92 224l543 977h176l-823 -1457h-76z" />
<glyph unicode="W" horiz-adv-x="1613" d="M233 1434h168l37 -957l-18 -237h2l80 241l481 953h88l76 -957l-19 -237h2l82 241l437 953h168l-689 -1457h-90l-77 961l12 217h-8l-82 -219l-480 -959h-90z" />
<glyph unicode="X" horiz-adv-x="1204" d="M-14 0l606 733l-266 701h178l176 -486l25 -117l69 117l391 486h199l-571 -695l290 -739h-178l-196 514l-29 123l-78 -123l-418 -514h-198z" />
<glyph unicode="Y" horiz-adv-x="1087" d="M221 1434h178l183 -627l6 -125h2l61 129l445 623h184l-623 -863l-120 -571h-164l121 569z" />
<glyph unicode="Z" d="M-2 0l31 154l891 1046l100 82h-750l31 152h916l-31 -154l-897 -1053l-96 -75h751l-31 -152h-915z" />
<glyph unicode="[" horiz-adv-x="595" d="M33 -471l403 1905h156h199l-31 -144h-199l-344 -1618h201l-31 -143h-201h-153z" />
<glyph unicode="\" horiz-adv-x="778" d="M84 1401l141 57l695 -1685l-136 -60z" />
<glyph unicode="]" horiz-adv-x="600" d="M-129 -471l31 143h196l342 1618h-198l30 144h203h152l-404 -1905h-153h-199z" />
<glyph unicode="^" horiz-adv-x="1024" d="M209 891l381 565h59l346 -565h-170l-161 276l-48 142l-63 -144l-191 -274h-153z" />
<glyph unicode="_" horiz-adv-x="835" d="M-90 -281h835v-139h-835v139z" />
<glyph unicode="`" horiz-adv-x="487" d="M602 1432l8 43h187l59 -306h-88z" />
<glyph unicode="a" horiz-adv-x="997" d="M92 293q0 131 34 266t104.5 243.5t182 178.5t269.5 70q57 0 140 -13.5t155 -36.5l-129 -598q-16 -76 -22.501B6663A59" />
<glyph unicode="b" horiz-adv-x="1067" d="M88 63l291 1371h153l-124 -586h8q29 37 65.5 72.5t81.5 64.5t96.5 46.5t110.5 17.5q121 0 176 -85t55 -214q0 -184 -51 -326.5t-135 -241t-191.5 -149.5t-220.5 -51q-111 0 -193.5 24t-121.5 57zM260 156q61 -43 174 -43q66 0 137.5 40t131 116.5t97.5 188t38 255.5 q0 104 -32 154.5t-85 50.5q-51 0 -104.5 -26t-101.5 -67t-88 -91t-65 -97z" />
<glyph unicode="c" horiz-adv-x="860" d="M102 303q0 174 47.5 312.5t126 234.5t181 147.5t211.5 51.5q78 0 128 -14.5t91 -33.5l-58 -127q-35 20 -860C3475CAD4" />
<glyph unicode="d" horiz-adv-x="1042" d="M102 322q0 121 35 248.5t102.5 232t169 172t234.5 67.5q37 0 63.5 -2t50 -6t44.5 -11l43 -15l90 426h153l-0634268A3A" />
<glyph unicode="e" horiz-adv-x="948" d="M102 332q0 168 47.5 301t124 225t174 141.5t199.5 49.5q74 0 128 -20.5t89 -54.5t51.5 -78t16.5 -93q0 -145 -141.5 -228t-411.5 -83q-25 0 -51.5 1t-55.5 3q-8 -39 -12 -74t-4 -62q0 -113 51 -183.5t160 -70.5q90 0 165 30t116 63l49 -99q-72 -61 -169.5 -93t-195.5 -32 q-164 0 -247 94.5t-83 262.5zM301 610q78 0 162 4t152.5 21.5t113.5 55.5t45 106q0 20 -7 41.5t-23.5 39t-46 29t-74.5 11.5q-113 0 -196 -77t-126 -231z" />
<glyph unicode="f" horiz-adv-x="569" d="M-233 -385l45 115q41 -14 74.5 -19.5t82.5 -5.5q78 0 117 75t66 236l143 877h-158l27 131h149l27 137q14 76 34.5 131.5t54.5 92t84 55t122 18.5q68 0 131 -13t115 -36l-45 -121q-100 39 -191 39q-76 0 -110.5 -52t-53.5 -167l-14 -84h207l-25 -131h-200l-164 -963 q-12 -76 -34 -140t-56.5 -112.5t-88 -76t-129.5 -27.5q-61 0 -113 9t-97 32z" />
<glyph unicode="g" horiz-adv-x="1034" d="M10 -342l68 115q16 -8 39.5 -21.5t57.5 -26t82 -20.5t114 -8q102 0 171.5 73.5t104.5 231.5l37 172h-8q-2901A998AA1F" />
<glyph unicode="h" horiz-adv-x="1083" d="M74 0l303 1434h153l-127 -586h9q27 33 64.5 67.5t86.5 64.5t106.5 49.5t125.5 19.5q100 0 157.5 -48.5t57.5 -175.5q0 -86 -27 -207l-131 -618h-154l123 584q12 61 20.5 109t8.5 85q0 76 -31 108t-96 32q-53 0 -108.5 -28t-106.5 -71t-91 -96t-61 -102l-129 -621h-153z " />
<glyph unicode="i" horiz-adv-x="530" d="M111 0l217 1024h153l-217 -1024h-153zM360 1337q0 47 32 80t79 33t80 -33t33 -80t-33 -78.5t-80 -31.5t-79 31.5t-32 78.5z" />
<glyph unicode="j" horiz-adv-x="509" d="M-197 -422l31 133q61 0 101 17.5t68 54.5t47.5 92t35.5 131l217 1018h154l-230 -1079q-41 -190 -127 -280.04E0C41A69" />
<glyph unicode="k" horiz-adv-x="919" d="M74 0l303 1434h153l-186 -873l88 23l369 440h188l-364 -416l-97 -67l78 -80l230 -461h-170l-232 461h-110l-97 -461h-153z" />
<glyph unicode="l" horiz-adv-x="552" d="M102 135q0 41 13 101l254 1198h153l-250 -1190q-6 -35 -6 -58q0 -39 13.5 -56t35.5 -17q41 0 69 5t67 19v-0E7717BA03" />
<glyph unicode="m" horiz-adv-x="1562" d="M74 0l217 1024h108l-12 -176h8l71 68q38 36 84 65t100.5 48.5t119.5 19.5q92 0 124 -57.5t32 -160.5q31 39 71.5 78t89 70t101.5 50.5t106 19.5q94 0 144.5 -44t50.5 -163q0 -86 -31 -228l-129 -614h-153l129 616q12 59 19 106.5t7 82.5q0 55 -22.5 84t-75.5 29 q-43 0 -91 -28t-93 -69t-81 -88t-57 -88l-133 -645h-153l123 580q16 72 24 127t8 96q0 55 -20.5 85t-69.5 30q-51 0 -100 -27t-92 -67t-79 -85t-57 -82l-135 -657h-153z" />
<glyph unicode="n" horiz-adv-x="1069" d="M74 0l217 1024h106l-8 -176h8q27 33 64 68.5t83 64.5t103.5 48.5t126.5 19.5q102 0 161.5 -49.5t59.5 -172.5q0 -61 -18 -147l-146 -680h-153l137 647q8 37 14.5 73t6.5 64q0 59 -28 96.5t-103 37.5q-53 0 -104.5 -25t-96.5 -62.5t-81 -84t-61 -91.5l-135 -655h-153z" />
<glyph unicode="o" horiz-adv-x="1019" d="M102 319q0 162 42 296.5t116 230.5t171 149.5t208 53.5q86 0 146.5 -28t98.5 -76t54 -110.5t16 -129.5q0 -0A127E2AF4" />
<glyph unicode="p" horiz-adv-x="1040" d="M-10 -410l305 1434h106l-10 -176h8q29 37 65 72.5t79 64.5t94 46.5t111 17.5q49 0 92 -15.5t75.5 -51.5t52 -95.5t19.5 -145.5q0 -180 -49 -322.5t-129 -240.5t-179.5 -150.5t-197.5 -52.5q-72 0 -126 13.5t-73 27.5l-90 -426h-153zM264 154q35 -27 72 -37.5t80 -10.5 q80 0 152.5 44.5t130 126t91 196.5t33.5 256q0 82 -33.5 135.5t-99.5 53.5q-55 0 -105 -29t-92 -71t-75 -90t-53 -89z" />
<glyph unicode="q" horiz-adv-x="1030" d="M94 289q0 137 45 272t125 241.5t190.5 173t243.5 66.5q43 0 87 -6t83 -15t72 -20.5t51 -23.5l-295 -1387h-0B184F9ACF" />
<glyph unicode="r" horiz-adv-x="669" d="M74 0l217 1024h106v-176h9q25 39 53 72.5t63 60.5t76 42t90 15q45 0 94 -14l-41 -135q-18 4 -37.5 6t-35.5 2q-104 0 -180 -65.5t-119 -159.5l-142 -672h-153z" />
<glyph unicode="s" horiz-adv-x="815" d="M6 41l57 129q41 -27 108 -45.5t138 -18.5q100 0 160.5 44.5t60.5 138.5q0 53 -26.5 90t-67.5 66.5t-88 58t0BD0827AB6" />
<glyph unicode="t" horiz-adv-x="641" d="M115 893l30 131h152l43 203l164 47l-53 -250h268l-31 -131h-266l-129 -619l-7 -45t-3 -36q0 -49 22.5 -68t67.5 -19q49 0 90 12.5t82 37.5v-125q-43 -25 -110.5 -40.5t-129.5 -15.5q-186 0 -186 170q0 35 10 86l139 662h-153z" />
<glyph unicode="u" horiz-adv-x="1046" d="M123 197q0 72 20 161l140 666h153l-143 -682q-12 -55 -12 -102q0 -57 22.5 -95.5t81.5 -38.5q49 0 99.5 25t96.5 63.5t83.5 86t62.5 92.5l137 651h154l-129 -608q-8 -35 -16.5 -85t-15.5 -105.5t-11 -107.5t-4 -91v-27h-121v195h-8q-31 -41 -71 -80t-88 -70t-103.5 -50.5 t-116.5 -19.5q-45 0 -83 10.5t-66.5 36t-45 67.5t-16.5 108z" />
<glyph unicode="v" horiz-adv-x="915" d="M123 1024h164l106 -600l19 -195h4l88 199l346 596h176l-639 -1047h-65z" />
<glyph unicode="w" horiz-adv-x="1402" d="M117 1024h155l64 -596l-4 -199h8l82 203l338 592h114l97 -598l8 -197h2l80 201l301 594h156l-551 -1047h-78l-109 676l-2 168h-4l-76 -170l-389 -674h-73z" />
<glyph unicode="x" horiz-adv-x="991" d="M-45 0l461 524l-219 500h174l121 -283l36 -116l84 116l248 283h187l-435 -492l244 -532h-174l-139 311l-41 123l-86 -123l-275 -311h-186z" />
<glyph unicode="y" horiz-adv-x="899" d="M-41 -401l49 141q23 -8 49 -8q59 0 119 61.5t133 206.5l-176 1024h164l100 -664l11 -196h10l78 198l340 660F91689AF4" />
<glyph unicode="z" horiz-adv-x="878" d="M-4 0l27 141l575 654l113 88h-529l31 141h690l-31 -141l-581 -660l-111 -82h535l-29 -141h-690z" />
<glyph unicode="{" horiz-adv-x="667" d="M154 412l30 139q152 0 191 174l106 496q20 96 78.5 155.5t151.5 59.5h166l-31 -144h-98q-53 0 -83 -27.5t-0A796A0A74" />
<glyph unicode="|" horiz-adv-x="487" d="M236 -266v1700h141v-1700h-141z" />
<glyph unicode="}" horiz-adv-x="677" d="M-129 -471l33 143h96q51 0 81 28t42 93l102 486q20 90 70.5 137t107.5 57l5 12q-45 6 -75 47t-28 107q0 10 2 24l4 25l105 483q4 12 5 22.5t1 20.5q2 78 -84 78h-94l28 144h166q72 0 112 -39t36 -115q0 -29 -8 -59l-103 -488q-8 -35 -8 -61q-2 -68 31.5 -94.5t95.5 -26.5 l-33 -139q-74 0 -123 -43t-69 -131q0 -2 -5.5 -24.5t-12.5 -57.5l-16 -80l-18 -90l-51 -244q-20 -96 -79.5 -155.5t-151.5 -59.5h-164z" />
<glyph unicode="~" horiz-adv-x="983" d="M94 739q88 68 160 94.5t131 26.5q57 0 106.5 -17.5t94.5 -39t88 -38.5t90 -17q39 0 80 16t88 57l69 -125q-0793D1AA5F" />
<glyph unicode="&#xa2;" d="M207 303q0 158 39 286t105.5 223t154.5 153.5t186 74.5l41 189h137l-41 -182q53 -6 93.5 -18.5t74.5 -27.5l-57 -127q-27 16 -65.5 26.5t-86.5 14.5l-170 -804q55 8 110.5 32.5t90.5 46.5l39 -102q-51 -43 -120.5 -69.5t-135.5 -36.5l-39 -187h-135l39 185 q-78 12 -129 46.5t-80 81t-40 97.5t-11 98zM371 367q0 -113 37.5 -175.5t105.5 -78.5l168 796q-61 -16 -117.5 -66t-99.5 -124t-68.5 -165t-25.5 -187z" />
<glyph unicode="&#xa3;" d="M76 0l30 145q61 0 118 31t100 83t68.5 124t25.5 158q0 41 -4 74.5t-11 66.5h-192l31 131h133q-8 37 -12.5 79t-4.5 95q0 117 41 206t110 147.5t161 88t196 29.5q82 0 155 -17.5t120 -43.5l-56 -131q-41 23 -106.5 37t-147.5 14q-63 0 -119.5 -21.5t-98.5 -63.5 t-66.5 -102.5t-24.5 -138.5q0 -63 5 -104t14 -74h317l-31 -131h-256q4 -25 6.5 -55.5t2.5 -71.5q0 -68 -13.5 -125t-33 -103t-44 -80t-47.5 -54l-92 -70l-2 -10l127 28h500l-31 -141h-868z" />
<glyph unicode="&#xa5;" d="M184 297l25 123h240l26 129h-237l26 123h182l-235 762h178l189 -627l6 -125h2l61 129l436 623h185l-551 -762h182l-27 -123h-233l-27 -129h234l-27 -123h-233l-62 -297h-164l62 297h-238z" />
<glyph unicode="&#xa9;" horiz-adv-x="1650" d="M158 594q0 170 57 304t155.5 226.5t229.5 141.5t279 49q147 0 278 -49t229.5 -141.5t155.5 -226.5t57 -3040D916BCA06" />
<glyph unicode="&#xad;" horiz-adv-x="700" d="M129 520l33 139h471l-35 -139h-469z" />
<glyph unicode="&#xae;" horiz-adv-x="1433" d="M281 924q0 131 43 232t117.5 170t173 104.5t208.5 35.5q113 0 212.5 -35.5t173 -104.5t115.5 -170t42 -232t-43 -232.5t-118 -170t-173 -104.5t-209 -36q-115 0 -213 36t-171.5 104.5t-115.5 170t-42 232.5zM410 924q0 -106 32.5 -185.5t89 -131.5t132 -78.5t159.5 -26.5 q88 0 164 25.5t131.5 77.5t87 131t31.5 188q0 106 -33 185t-89 131t-131 79t-161 27q-90 0 -165.5 -27t-131 -79t-86 -131t-30.5 -185zM612 659v531q33 10 92.5 15t112.5 5q86 0 147.5 -35.5t61.5 -123.5q0 -66 -42 -101t-103 -39l57 -28l152 -224h-125l-148 213l-98 31 v-244h-107zM719 965h69q59 0 92 18t33 64q0 72 -118 71q-23 0 -43.5 -1t-32.5 -7v-145z" />
<glyph unicode="&#xb4;" horiz-adv-x="487" d="M690 1169l180 306h172l-10 -43l-252 -263h-90z" />
<glyph unicode="&#xba;" horiz-adv-x="776" d="M123 1004q0 119 36 204.5t91 141t122.5 82t133.5 26.5q117 0 177 -63.5t60 -180.5q0 -111 -30.5 -194.5t-82.5 -141t-123 -87t-149 -29.5q-104 0 -169.5 63.5t-65.5 178.5zM264 1020q0 -66 30 -102.5t89 -36.5q43 0 83 22.5t70.5 64.5t48 102t17.5 136q0 72 -31.5 102.5 t-89.5 30.5q-43 0 -83 -25.5t-69.5 -68.5t-47 -101t-17.5 -124z" />
<glyph unicode="&#x2000;" horiz-adv-x="819" />
<glyph unicode="&#x2001;" horiz-adv-x="1638" />
<glyph unicode="&#x2002;" horiz-adv-x="819" />
<glyph unicode="&#x2003;" horiz-adv-x="1638" />
<glyph unicode="&#x2004;" horiz-adv-x="544" />
<glyph unicode="&#x2005;" horiz-adv-x="409" />
<glyph unicode="&#x2006;" horiz-adv-x="272" />
<glyph unicode="&#x2007;" horiz-adv-x="272" />
<glyph unicode="&#x2008;" horiz-adv-x="204" />
<glyph unicode="&#x2009;" horiz-adv-x="327" />
<glyph unicode="&#x200a;" horiz-adv-x="90" />
<glyph unicode="&#x2010;" horiz-adv-x="700" d="M129 520l33 139h471l-35 -139h-469z" />
<glyph unicode="&#x2011;" horiz-adv-x="700" d="M129 520l33 139h471l-35 -139h-469z" />
<glyph unicode="&#x2012;" horiz-adv-x="700" d="M129 520l33 139h471l-35 -139h-469z" />
<glyph unicode="&#x2013;" horiz-adv-x="1284" d="M231 520l33 139h826l-33 -139h-826z" />
<glyph unicode="&#x2014;" horiz-adv-x="1595" d="M231 520l33 139h1137l-33 -139h-1137z" />
<glyph unicode="&#x2018;" horiz-adv-x="380" d="M221 1288q0 70 26.5 124t63.5 92t76 59.5t64 29.5l30 -71q-47 -23 -81.5 -63t-43.5 -93q6 2 19 2q31 0 48 -24.5t17 -57.5q0 -59 -29.5 -89t-80.5 -30q-53 0 -81 37t-28 84z" />
<glyph unicode="&#x2019;" horiz-adv-x="382" d="M221 1094q47 25 82 63.5t45 93.5q-82 4 -82 97q0 25 11.5 44t28 31.5t35.5 19.5t38 7q61 0 82.5 -30.5t21.039F21FA4B" />
<glyph unicode="&#x201c;" horiz-adv-x="665" d="M506 1288q0 70 26.5 124t63.5 92t76 59.5t64 29.5l30 -71q-47 -23 -81.5 -63t-43.5 -93q6 2 19 2q31 0 48 -24.5t17 -57.5q0 -59 -29.5 -89t-80.5 -30q-53 0 -81 37t-28 84zM221 1288q0 70 26.5 124t63.5 92t76 59.5t64 29.5l30 -71q-47 -23 -81.5 -63t-43.5 -93 q6 2 19 2q31 0 48 -24.5t17 -57.5q0 -59 -29.5 -89t-80.5 -30q-53 0 -81 37t-28 84z" />
<glyph unicode="&#x201d;" horiz-adv-x="665" d="M504 1094q47 25 82 63.5t45 93.5q-82 4 -82 97q0 25 11.5 44t28 31.5t35.5 19.5t38 7q61 0 82.5 -30.5t21.0CEE0FEAD7" />
<glyph unicode="&#x2022;" horiz-adv-x="925" d="M229 637q0 63 22.5 115.5t60.5 90.5t90.5 58.5t111.5 20.5t111.5 -19.5t90.5 -56.5t60.5 -89t22.5 -120t-22.5 -120t-60.5 -89t-90.5 -56.5t-111.5 -19.5t-111.5 19.5t-90.5 56.5t-60.5 89t-22.5 120z" />
<glyph unicode="&#x2026;" horiz-adv-x="1476" d="M55 94q0 55 33 87t86 32t86 -31.5t33 -87.5q0 -53 -33 -86t-86 -33t-86 33t-33 86zM549 94q0 55 32.5 87t86.5 32q53 0 85.5 -31.5t32.5 -87.5q0 -53 -32.5 -86t-85.5 -33t-86 33t-33 86zM1044 94q0 55 33 87t86 32t86 -31.5t33 -87.5q0 -53 -32.5 -86t-86.5 -33 q-53 0 -86 33t-33 86z" />
<glyph unicode="&#x202f;" horiz-adv-x="327" />
<glyph unicode="&#x205f;" horiz-adv-x="409" />
<glyph unicode="&#x20ac;" d="M12 520l64 131h145q6 31 13.5 74t15.5 74h-176l63 131h152q53 141 129 239.5t166 163t187 95t190 30.5q98 0 166.5 -16.5t117.5 -42.5l-71 -125q-78 45 -244 45q-55 0 -121 -22.5t-131.5 -69.5t-123.5 -120t-103 -177h565l-62 -131h-544q-10 -33 -16.5 -75t-10.5 -73h498 l-62 -131h-442l-2 -8q-2 -94 16.5 -165t58 -122t105.5 -80.5t164 -29.5q66 0 130 18.5t118 46.5l28 -123q-37 -25 -79 -40t-87 -24t-88 -13.5t-79 -4.5q-111 0 -195 38t-140.5 104.5t-85 158t-30.5 207.5l2 37h-201z" />
<glyph unicode="&#x2122;" horiz-adv-x="1814" d="M184 1294v140h717v-140h-278v-598h-160v598h-279zM983 696v738h160l215 -344l57 -119h2l62 123l198 340h162v-738h-156v342l21 211h-8l-80 -174l-178 -287h-68l-182 285l-74 176h-8l27 -209v-344h-150z" />
<glyph unicode="&#xe000;" horiz-adv-x="1025" d="M0 1025h1025v-1025h-1025v1025z" />
<glyph unicode="&#xfb01;" horiz-adv-x="1050" d="M-233 -385l45 115q41 -14 74.5 -19.5t82.5 -5.5q78 0 117 81t61 214l148 893h-152l27 131h152q25 123 64.5 205t96 131t128 68.5t157.5 19.5q117 0 200 -24.5t126 -55.5l-66 -117q-47 35 -120.5 50.5t-155.5 15.5q-72 0 -118 -20.5t-77 -58.5t-49.5 -92t-32.5 -122h512 l-172 -1024h-153l147 893h-360l-148 -893q-18 -113 -43 -192.5t-61.5 -132t-90 -77t-129.5 -24.5q-61 0 -113 9t-97 32z" />
<glyph unicode="&#xfb02;" horiz-adv-x="1118" d="M-233 -385l45 115q41 -14 74.5 -19.5t82.5 -5.5q78 0 117 81t61 214l132 893h-152l27 131h151q23 121 59.5 204t90 134t124 73.5t162.5 22.5q39 0 87.5 -3t96.5 -8t90 -11t68 -15l-190 -1171q-6 -35 -6 -57q0 -80 67 -80q27 0 56.5 5t70.5 17l-8 -115q-18 -8 -42.5 -15 t-51.5 -12t-52.5 -8t-43.5 -3q-74 0 -117 32.5t-43 112.5q0 8 1 19.5t6 48t16 109.5l32 202l51 324l76 479q-29 6 -82 12t-106 6q-66 0 -109 -21.5t-71.5 -61.5t-46 -96t-31.5 -124h203l-27 -131h-203l-131 -893q-16 -113 -39.5 -192.5t-61.5 -132t-92.5 -77t-130.5 -24.5 q-61 0 -113 9t-97 32z" />
<glyph unicode="&#xfb03;" horiz-adv-x="1669" d="M1250 0l217 1024h153l-217 -1024h-153zM1499 1337q0 47 32 80t79 33t80 -33t33 -80t-33 -78.5t-80 -31.5t-79 31.5t-32 78.5zM336 -385l45 115q41 -14 74.5 -19.5t82.5 -5.5q78 0 117 75t66 236l143 877h-158l27 131h149l27 137q14 76 34.5 131.5t54.5 92t84 55t122 18.5 q68 0 131 -13t115 -36l-45 -121q-100 39 -191 39q-76 0 -110.5 -52t-53.5 -167l-14 -84h207l-25 -131h-200l-164 -963q-12 -76 -34 -140t-56.5 -112.5t-88 -76t-129.5 -27.5q-61 0 -113 9t-97 32zM-233 -385l45 115q41 -14 74.5 -19.5t82.5 -5.5q78 0 117 75t66 236l143 877 h-158l27 131h149l27 137q14 76 34.5 131.5t54.5 92t84 55t122 18.5q68 0 131 -13t115 -36l-45 -121q-100 39 -191 39q-76 0 -110.5 -52t-53.5 -167l-14 -84h207l-25 -131h-200l-164 -963q-12 -76 -34 -140t-56.5 -112.5t-88 -76t-129.5 -27.5q-61 0 -113 9t-97 32z" />
<glyph unicode="&#xfb04;" horiz-adv-x="1691" d="M1241 135q0 41 13 101l254 1198h153l-250 -1190q-6 -35 -6 -58q0 -39 13.5 -56t35.5 -17q41 0 69 5t67 19v-117q-18 -10 -43 -17t-50.5 -11t-51 -7t-46.5 -3q-72 0 -115 32.5t-43 120.5zM336 -385l45 115q41 -14 74.5 -19.5t82.5 -5.5q78 0 117 75t66 236l143 877h-158 l27 131h149l27 137q14 76 34.5 131.5t54.5 92t84 55t122 18.5q68 0 131 -13t115 -36l-45 -121q-100 39 -191 39q-76 0 -110.5 -52t-53.5 -167l-14 -84h207l-25 -131h-200l-164 -963q-12 -76 -34 -140t-56.5 -112.5t-88 -76t-129.5 -27.5q-61 0 -113 9t-97 32zM-233 -385 l45 115q41 -14 74.5 -19.5t82.5 -5.5q78 0 117 75t66 236l143 877h-158l27 131h149l27 137q14 76 34.5 131.5t54.5 92t84 55t122 18.5q68 0 131 -13t115 -36l-45 -121q-100 39 -191 39q-76 0 -110.5 -52t-53.5 -167l-14 -84h207l-25 -131h-200l-164 -963q-12 -76 -34 -140 t-56.5 -112.5t-88 -76t-129.5 -27.5q-61 0 -113 9t-97 32z" />
<glyph horiz-adv-x="376" d="M662 1460l102 -80l-1051 -1405l-102 80z" />
</font>
</defs></svg> 